module github.com/updatecli/updatecli

go 1.20

require (
	github.com/Azure/go-autorest/autorest/azure/auth v0.5.11 // indirect
	github.com/Azure/go-autorest/autorest/to v0.4.0 // indirect
	github.com/Azure/go-autorest/autorest/validation v0.3.1 // indirect
	github.com/Masterminds/semver/v3 v3.2.0
	github.com/Masterminds/sprig/v3 v3.2.3
	github.com/aws/aws-sdk-go v1.44.203
	github.com/containerd/containerd v1.6.18 // indirect
	github.com/fatih/color v1.14.1
	github.com/go-git/go-git/v5 v5.6.0
	github.com/heimdalr/dag v1.2.1
	github.com/hexops/gotextdiff v1.0.3
	github.com/lithammer/dedent v1.1.0
	github.com/mitchellh/hashstructure v1.1.0
	github.com/mitchellh/mapstructure v1.5.0
	github.com/moby/buildkit v0.10.6
	github.com/opencontainers/image-spec v1.1.0-rc2 // indirect
	github.com/pkg/errors v0.9.1 // indirect
	github.com/shurcooL/githubv4 v0.0.0-20230215024106-420ad0987b9b
	github.com/shurcooL/graphql v0.0.0-20220606043923-3cf50f8a0a29 //indirect
	github.com/sirupsen/logrus v1.9.0
	github.com/spf13/cobra v1.6.1
	github.com/stretchr/testify v1.8.2
	go.mozilla.org/sops/v3 v3.7.3
	golang.org/x/oauth2 v0.6.0
	gopkg.in/yaml.v3 v3.0.1
	helm.sh/helm/v3 v3.11.1
	sigs.k8s.io/yaml v1.3.0
)

require (
	github.com/BurntSushi/toml v1.2.1
	github.com/ProtonMail/go-crypto v0.0.0-20221026131551-cf6655e29de4
	github.com/beevik/etree v1.1.0
	github.com/drone/go-scm v1.29.1
	github.com/google/go-containerregistry v0.13.0
	github.com/goware/urlx v0.3.2
	github.com/invopop/jsonschema v0.7.0
	github.com/muesli/mango-cobra v1.2.0
	github.com/muesli/roff v0.1.0
	github.com/tomwright/dasel v1.27.3
	golang.org/x/text v0.8.0
	golang.org/x/time v0.3.0
	gopkg.in/ini.v1 v1.67.0
	gotest.tools v2.2.0+incompatible
)

require (
	cloud.google.com/go/compute v1.10.0 // indirect
	filippo.io/age v1.0.0 // indirect
	github.com/Azure/azure-sdk-for-go v63.3.0+incompatible // indirect
	github.com/Azure/go-ansiterm v0.0.0-20210617225240-d185dfc1b5a1 // indirect
	github.com/Azure/go-autorest v14.2.0+incompatible // indirect
	github.com/Azure/go-autorest/autorest v0.11.27 // indirect
	github.com/Azure/go-autorest/autorest/adal v0.9.20 // indirect
	github.com/Azure/go-autorest/autorest/azure/cli v0.4.5 // indirect
	github.com/Azure/go-autorest/autorest/date v0.3.0 // indirect
	github.com/Azure/go-autorest/logger v0.2.1 // indirect
	github.com/Azure/go-autorest/tracing v0.6.0 // indirect
	github.com/MakeNowJust/heredoc v1.0.0 // indirect
	github.com/Masterminds/goutils v1.1.1 // indirect
	github.com/Masterminds/squirrel v1.5.3 // indirect
	github.com/Microsoft/go-winio v0.6.0 // indirect
	github.com/PuerkitoBio/purell v1.1.1 // indirect
	github.com/PuerkitoBio/urlesc v0.0.0-20170810143723-de5bf2ad4578 // indirect
	github.com/acomagu/bufpipe v1.0.3 // indirect
	github.com/alecthomas/chroma v0.9.2 // indirect
	github.com/armon/go-metrics v0.3.10 // indirect
	github.com/armon/go-radix v1.0.0 // indirect
	github.com/asaskevich/govalidator v0.0.0-20200428143746-21a406dcc535 // indirect
	github.com/beorn7/perks v1.0.1 // indirect
	github.com/blang/semver v3.5.1+incompatible // indirect
	github.com/cenkalti/backoff/v3 v3.2.2 // indirect
	github.com/cespare/xxhash/v2 v2.1.2 // indirect
	github.com/chai2010/gettext-go v1.0.2 // indirect
	github.com/clbanning/mxj/v2 v2.3.3-0.20201214204241-e937bdee5a3e // indirect
	github.com/cloudflare/circl v1.1.0 // indirect
	github.com/containerd/typeurl v1.0.2 // indirect
	github.com/cpuguy83/go-md2man/v2 v2.0.2 // indirect
	github.com/cyphar/filepath-securejoin v0.2.3 // indirect
	github.com/danwakefield/fnmatch v0.0.0-20160403171240-cbb64ac3d964 // indirect
	github.com/davecgh/go-spew v1.1.1 // indirect
	github.com/dimchansky/utfbom v1.1.1 // indirect
	github.com/dlclark/regexp2 v1.4.0 // indirect
	github.com/docker/cli v20.10.21+incompatible // indirect
	github.com/docker/distribution v2.8.1+incompatible // indirect
	github.com/docker/docker v20.10.21+incompatible // indirect
	github.com/docker/docker-credential-helpers v0.7.0 // indirect
	github.com/docker/go-connections v0.4.0 // indirect
	github.com/docker/go-metrics v0.0.1 // indirect
	github.com/docker/go-units v0.5.0 // indirect
	github.com/emicklei/go-restful/v3 v3.9.0 // indirect
	github.com/emirpasic/gods v1.18.1 // indirect
	github.com/evanphx/json-patch v5.6.0+incompatible // indirect
	github.com/exponent-io/jsonpath v0.0.0-20151013193312-d6023ce2651d // indirect
	github.com/go-errors/errors v1.0.1 // indirect
	github.com/go-git/gcfg v1.5.0 // indirect
	github.com/go-git/go-billy/v5 v5.4.0 // indirect
	github.com/go-gorp/gorp/v3 v3.0.2 // indirect
	github.com/go-logr/logr v1.2.3 // indirect
	github.com/go-openapi/jsonpointer v0.19.5 // indirect
	github.com/go-openapi/jsonreference v0.20.0 // indirect
	github.com/go-openapi/swag v0.19.14 // indirect
	github.com/gobwas/glob v0.2.3 // indirect
	github.com/gogo/protobuf v1.3.2 // indirect
	github.com/golang-jwt/jwt/v4 v4.3.0 // indirect
	github.com/golang/groupcache v0.0.0-20210331224755-41bb18bfe9da // indirect
	github.com/golang/protobuf v1.5.2 // indirect
	github.com/golang/snappy v0.0.4 // indirect
	github.com/google/btree v1.0.1 // indirect
	github.com/google/gnostic v0.5.7-v3refs // indirect
	github.com/google/go-cmp v0.5.9 // indirect
	github.com/google/gofuzz v1.2.0 // indirect
	github.com/google/shlex v0.0.0-20191202100458-e7afc7fbc510 // indirect
	github.com/google/uuid v1.3.0 // indirect
	github.com/googleapis/enterprise-certificate-proxy v0.1.0 // indirect
	github.com/googleapis/gax-go/v2 v2.4.0 // indirect
	github.com/gorilla/mux v1.8.0 // indirect
	github.com/gosuri/uitable v0.0.4 // indirect
	github.com/goware/prefixer v0.0.0-20160118172347-395022866408 // indirect
	github.com/gregjones/httpcache v0.0.0-20190611155906-901d90724c79 // indirect
	github.com/hashicorp/errwrap v1.1.0 // indirect
	github.com/hashicorp/go-cleanhttp v0.5.2 // indirect
	github.com/hashicorp/go-hclog v1.2.0 // indirect
	github.com/hashicorp/go-immutable-radix v1.3.1 // indirect
	github.com/hashicorp/go-multierror v1.1.1 // indirect
	github.com/hashicorp/go-plugin v1.4.3 // indirect
	github.com/hashicorp/go-retryablehttp v0.7.0 // indirect
	github.com/hashicorp/go-rootcerts v1.0.2 // indirect
	github.com/hashicorp/go-secure-stdlib/mlock v0.1.2 // indirect
	github.com/hashicorp/go-secure-stdlib/parseutil v0.1.3 // indirect
	github.com/hashicorp/go-secure-stdlib/strutil v0.1.2 // indirect
	github.com/hashicorp/go-sockaddr v1.0.2 // indirect
	github.com/hashicorp/go-uuid v1.0.2 // indirect
	github.com/hashicorp/go-version v1.4.0 // indirect
	github.com/hashicorp/golang-lru v0.5.4 // indirect
	github.com/hashicorp/hcl v1.0.0 // indirect
	github.com/hashicorp/vault/api v1.5.0 // indirect
	github.com/hashicorp/vault/sdk v0.4.1 // indirect
	github.com/hashicorp/yamux v0.0.0-20211028200310-0bc27b27de87 // indirect
	github.com/howeyc/gopass v0.0.0-20210920133722-c8aef6fb66ef // indirect
	github.com/huandu/xstrings v1.3.3 // indirect
	github.com/iancoleman/orderedmap v0.2.0
	github.com/imdario/mergo v0.3.13 // indirect
	github.com/inconshreveable/mousetrap v1.0.1 // indirect
	github.com/jbenet/go-context v0.0.0-20150711004518-d14ea06fba99 // indirect
	github.com/jmespath/go-jmespath v0.4.0 // indirect
	github.com/jmoiron/sqlx v1.3.5 // indirect
	github.com/josharian/intern v1.0.0 // indirect
	github.com/json-iterator/go v1.1.12 // indirect
	github.com/kevinburke/ssh_config v1.2.0 // indirect
	github.com/klauspost/compress v1.15.11 // indirect
	github.com/lann/builder v0.0.0-20180802200727-47ae307949d0 // indirect
	github.com/lann/ps v0.0.0-20150810152359-62de8c46ede0 // indirect
	github.com/lib/pq v1.10.7 // indirect
	github.com/liggitt/tabwriter v0.0.0-20181228230101-89fcab3d43de // indirect
	github.com/mailru/easyjson v0.7.6 // indirect
	github.com/mattn/go-colorable v0.1.13 // indirect
	github.com/mattn/go-isatty v0.0.17 // indirect
	github.com/mattn/go-runewidth v0.0.9 // indirect
	github.com/matttproud/golang_protobuf_extensions v1.0.4 // indirect
	github.com/mitchellh/copystructure v1.2.0 // indirect
	github.com/mitchellh/go-homedir v1.1.0 // indirect
	github.com/mitchellh/go-testing-interface v1.14.1 // indirect
	github.com/mitchellh/go-wordwrap v1.0.1 // indirect
	github.com/mitchellh/reflectwalk v1.0.2 // indirect
	github.com/moby/locker v1.0.1 // indirect
	github.com/moby/spdystream v0.2.0 // indirect
	github.com/moby/term v0.0.0-20221205130635-1aeaba878587 // indirect
	github.com/modern-go/concurrent v0.0.0-20180306012644-bacd9c7ef1dd // indirect
	github.com/modern-go/reflect2 v1.0.2 // indirect
	github.com/monochromegane/go-gitignore v0.0.0-20200626010858-205db1a8cc00 // indirect
	github.com/morikuni/aec v1.0.0 // indirect
	github.com/muesli/mango v0.1.0 // indirect
	github.com/muesli/mango-pflag v0.1.0 // indirect
	github.com/munnerz/goautoneg v0.0.0-20191010083416-a7dc8b61c822 // indirect
	github.com/oklog/run v1.1.0 // indirect
	github.com/opencontainers/go-digest v1.0.0 // indirect
	github.com/pelletier/go-toml v1.9.5 // indirect
	github.com/peterbourgon/diskv v2.0.1+incompatible // indirect
	github.com/pierrec/lz4 v2.6.1+incompatible // indirect
	github.com/pjbgf/sha1cd v0.3.0 // indirect
	github.com/pmezard/go-difflib v1.0.0 // indirect
	github.com/prometheus/client_golang v1.14.0 // indirect
	github.com/prometheus/client_model v0.3.0 // indirect
	github.com/prometheus/common v0.37.0 // indirect
	github.com/prometheus/procfs v0.8.0 // indirect
	github.com/rubenv/sql-migrate v1.2.0 // indirect
	github.com/russross/blackfriday/v2 v2.1.0 // indirect
	github.com/ryanuber/go-glob v1.0.0 // indirect
	github.com/sergi/go-diff v1.1.0 // indirect
	github.com/shopspring/decimal v1.2.0 // indirect
	github.com/skeema/knownhosts v1.1.0 // indirect
	github.com/spf13/cast v1.4.1 // indirect
	github.com/spf13/pflag v1.0.5 // indirect
	github.com/xanzy/ssh-agent v0.3.3 // indirect
	github.com/xeipuuv/gojsonpointer v0.0.0-20180127040702-4e3ac2762d5f // indirect
	github.com/xeipuuv/gojsonreference v0.0.0-20180127040603-bd5ef7bd5415 // indirect
	github.com/xeipuuv/gojsonschema v1.2.0 // indirect
	github.com/xlab/treeprint v1.1.0 // indirect
	go.mozilla.org/gopgagent v0.0.0-20170926210634-4d7ea76ff71a // indirect
	go.opencensus.io v0.23.0 // indirect
	go.starlark.net v0.0.0-20200306205701-8dd3e2ee1dd5 // indirect
	go.uber.org/atomic v1.9.0 // indirect
	golang.org/x/crypto v0.5.0 // indirect
	golang.org/x/mod v0.8.0 // indirect
	golang.org/x/net v0.8.0 // indirect
	golang.org/x/sync v0.1.0 // indirect
	golang.org/x/sys v0.6.0 // indirect
	golang.org/x/term v0.6.0 // indirect
	golang.org/x/tools v0.6.0 // indirect
	google.golang.org/api v0.96.0 // indirect
	google.golang.org/appengine v1.6.7 // indirect
	google.golang.org/genproto v0.0.0-20220915135415-7fd63a7952de // indirect
	google.golang.org/grpc v1.49.0 // indirect
	google.golang.org/protobuf v1.28.1 // indirect
	gopkg.in/inf.v0 v0.9.1 // indirect
	gopkg.in/square/go-jose.v2 v2.6.0 // indirect
	gopkg.in/urfave/cli.v1 v1.20.0 // indirect
	gopkg.in/warnings.v0 v0.1.2 // indirect
	gopkg.in/yaml.v2 v2.4.0 // indirect
	k8s.io/api v0.26.0 // indirect
	k8s.io/apiextensions-apiserver v0.26.0 // indirect
	k8s.io/apimachinery v0.26.0 // indirect
	k8s.io/apiserver v0.26.0 // indirect
	k8s.io/cli-runtime v0.26.0 // indirect
	k8s.io/client-go v0.26.0 // indirect
	k8s.io/component-base v0.26.0 // indirect
	k8s.io/klog/v2 v2.80.1 // indirect
	k8s.io/kube-openapi v0.0.0-20221012153701-172d655c2280 // indirect
	k8s.io/kubectl v0.26.0 // indirect
	k8s.io/utils v0.0.0-20221107191617-1a15be271d1d // indirect
	oras.land/oras-go v1.2.2 // indirect
	sigs.k8s.io/json v0.0.0-20220713155537-f223a00ba0e2 // indirect
	sigs.k8s.io/kustomize/api v0.12.1 // indirect
	sigs.k8s.io/kustomize/kyaml v0.13.9 // indirect
	sigs.k8s.io/structured-merge-diff/v4 v4.2.3 // indirect
)
